Prac Day 4 – Statistical Computing Practicals
…
Warning: Not all unique entries displayed for these non-numeric cols: tailnum,
dest, time_hour

flights <- as_tibble(flights)
flights

# A tibble: 336,776 × 19
    year month   day dep_time sched_dep_time dep_delay arr_time sched_arr_time
   <int> <int> <int>    <int>          <int>     <dbl>    <int>          <int>
 1  2013     1     1      517            515         2      830            819
 2  2013     1     1      533            529         4      850            830
 3  2013     1     1      542            540         2      923            850
 4  2013     1     1      544            545        -1     1004           1022
 5  2013     1     1      554            600        -6      812            837
 6  2013     1     1      554            558        -4      740            728
 7  2013     1     1      555            600        -5      913            854
 8  2013     1     1      557            600        -3      709            723
 9  2013     1     1      557            600        -3      838            846
10  2013     1     1      558            600        -2      753            745
# ℹ 336,766 more rows
# ℹ 11 more variables: arr_delay <dbl>, carrier <chr>, flight <int>,
#   tailnum <chr>, origin <chr>, dest <chr>, air_time <dbl>, distance <dbl>,
#   hour <dbl>, minute <dbl>, time_hour <dttm>
…
# A tibble: 1 × 3
  count total_flights proportion
  <int>         <int>      <dbl>
1 35442        336776      0.105

note: summarise is helpful for calculating summary statistics for the entire dataset/ groups

Using the airlines and flights datasets, do the following, showing the output from each step:

6.1) Identify routes that more than one airline flies

library(dplyr)  
flights

# A tibble: 336,776 × 19
    year month   day dep_time sched_dep_time dep_delay arr_time sched_arr_time
   <int> <int> <int>    <int>          <int>     <dbl>    <int>          <int>
 1  2013     1     1      517            515         2      830            819
 2  2013     1     1      533            529         4      850            830
 3  2013     1     1      542            540         2      923            850
 4  2013     1     1      544            545        -1     1004           1022
 5  2013     1     1      554            600        -6      812            837
 6  2013     1     1      554            558        -4      740            728
 7  2013     1     1      555            600        -5      913            854
 8  2013     1     1      557            600        -3      709            723
 9  2013     1     1      557            600        -3      838            846
10  2013     1     1      558            600        -2      753            745
# ℹ 336,766 more rows
# ℹ 11 more variables: arr_delay <dbl>, carrier <chr>, flight <int>,
#   tailnum <chr>, origin <chr>, dest <chr>, air_time <dbl>, distance <dbl>,
#   hour <dbl>, minute <dbl>, time_hour <dttm>

mult_flights <- flights |>   
  group_by(origin, dest) |>  
  #summarise(num_airlines = n_distinct(carrier), .group = 'drop') %>% 
  filter(n_distinct(carrier) > 1) |>   
  select(origin, dest, carrier) |>   
distinct()
mult_flights 

# A tibble: 343 × 3
# Groups:   origin, dest [128]
   origin dest  carrier
   <chr>  <chr> <chr>  
 1 JFK    MIA   AA     
 2 LGA    ATL   DL     
 3 EWR    ORD   UA     
 4 EWR    FLL   B6     
 5 LGA    IAD   EV     
 6 JFK    MCO   B6     
 7 LGA    ORD   AA     
 8 JFK    TPA   B6     
 9 JFK    LAX   UA     
10 EWR    SFO   UA     
# ℹ 333 more rows
…
# Calculate average arrival delays for airlines on identified multi-airline routes using join  
avg_arrival <- flights |>   
  
  # Join the flights dataset with the unique routes on origin and dest  
  inner_join(unique_routes,   
             by = c("origin", "dest")) |>  # Joining on origin and dest  
  
  group_by(origin, dest, carrier) |>   # Group by origin, destination, and carrier  
  summarise(mean_arr_delay = mean(arr_delay, na.rm = TRUE), .groups = 'drop')  # Calculate mean arrival delay  

# Display the average arrival delays  
avg_arrival

# A tibble: 343 × 4
   origin dest  carrier mean_arr_delay
   <chr>  <chr> <chr>            <dbl>
 1 EWR    ATL   9E               -6.25
 2 EWR    ATL   DL               10.0 
 3 EWR    ATL   EV               19.5 
 4 EWR    ATL   UA               10.5 
 5 EWR    AUS   UA                4.28
 6 EWR    AUS   WN              -11.2 
 7 EWR    BDL   EV                6.78
 8 EWR    BDL   UA               22.6 
 9 EWR    BNA   EV               17.7 
10 EWR    BNA   WN               -2.13
# ℹ 333 more rows
…
            worst_airline = carrier[which.max(mean_arr_delay)],  
            worst_delay = max(mean_arr_delay),
            
            difference = max(mean_arr_delay) - min(mean_arr_delay)) 

`summarise()` has grouped output by 'origin'. You can override using the
`.groups` argument.

best_worst

# A tibble: 128 × 7
# Groups:   origin [3]
   origin dest  best_airline best_delay worst_airline worst_delay difference
   <chr>  <chr> <chr>             <dbl> <chr>               <dbl>      <dbl>
 1 EWR    ATL   9E               -6.25  EV                  19.5       25.8 
 2 EWR    AUS   WN              -11.2   UA                   4.28      15.5 
 3 EWR    BDL   EV                6.78  UA                  22.6       15.8 
 4 EWR    BNA   WN               -2.13  EV                  17.7       19.8 
 5 EWR    BOS   EV               -4.01  B6                   6.87      10.9 
 6 EWR    BWI   WN                5.95  EV                  20.1       14.1 
 7 EWR    CHS   UA              -14     EV                  16.2       30.2 
 8 EWR    CLE   EV               -3.71  UA                   5.97       9.68
 9 EWR    CLT   US                0.920 EV                  20.5       19.6 
10 EWR    CVG   9E                1.40  EV                  21.2       19.8 
# ℹ 118 more rows
…
data

# A tibble: 50 × 15
   id      age gender height weight blood_type disease_status cholesterol
   <chr> <int> <chr>   <dbl>  <dbl> <chr>      <chr>                <dbl>
 1 id_1     50 male     174.   69.4 O          diseased               228
 2 id_2     34 male     198.   62.3 A          healthy                223
 3 id_3     70 male     174.   55.6 O          healthy                213
 4 id_4     33 female   194.   69.5 O          healthy                198
 5 id_5     22 female    NA    78.6 B          healthy                166
 6 id_6     61 male     180.   60.8 AB         healthy                151
 7 id_7     69 female   170.   72.2 O          diseased               195
 8 id_8     73 male     157.   60.9 O          healthy                199
 9 id_9     62 male     197.   75.1 O          diseased               189
10 id_10    56 female   165.   67.7 AB         Healthy                196
# ℹ 40 more rows
# ℹ 7 more variables: glucose <dbl>, smoker <chr>, exercise <chr>,
#   income <int>, education <chr>, region <chr>, marital_status <chr>

Identify all columns with missing entries, typos and any other inconsistencies in the dataset above

#convert dataset into a tibble 

library(tibble)
library(utils)
data <- as_tibble(data)
data

# A tibble: 50 × 15
   id      age gender height weight blood_type disease_status cholesterol
   <chr> <int> <chr>   <dbl>  <dbl> <chr>      <chr>                <dbl>
 1 id_1     50 male     174.   69.4 O          diseased               228
 2 id_2     34 male     198.   62.3 A          healthy                223
 3 id_3     70 male     174.   55.6 O          healthy                213
 4 id_4     33 female   194.   69.5 O          healthy                198
 5 id_5     22 female    NA    78.6 B          healthy                166
 6 id_6     61 male     180.   60.8 AB         healthy                151
 7 id_7     69 female   170.   72.2 O          diseased               195
 8 id_8     73 male     157.   60.9 O          healthy                199
 9 id_9     62 male     197.   75.1 O          diseased               189
10 id_10    56 female   165.   67.7 AB         Healthy                196
# ℹ 40 more rows
# ℹ 7 more variables: glucose <dbl>, smoker <chr>, exercise <chr>,
#   income <int>, education <chr>, region <chr>, marital_status <chr>
…
